<?xml version="1.0" encoding="UTF-8"?>
<svg width="106px" height="64px" viewBox="0 0 106 64" version="1.1" xmlns="http://www.w3.org/2000/svg" xmlns:xlink="http://www.w3.org/1999/xlink" style="background: #FFFFFF;">
    <!-- Generator: Sketch 49.3 (51167) - http://www.bohemiancoding.com/sketch -->
    <title>amd</title>
    <desc>Created with Sketch.</desc>
    <defs></defs>
    <g id="amd" stroke="none" stroke-width="1" fill="none" fill-rule="evenodd">
        <rect id="bg" fill-opacity="0" fill="#FFFFFF" x="0" y="0" width="106" height="64"></rect>
        <g id="AMD" transform="translate(0.000000, 19.000000)" fill="#000000" fill-rule="nonzero">
            <g id="Group" transform="translate(0.000000, 1.688466)">
                <path d="M24.8893873,21.9072266 L19.0119905,21.9072266 L17.213985,17.5704474 L7.41867685,17.5704474 L5.7805618,21.9072266 L0,21.9072266 L8.83132922,0.00396165932 L15.1581943,0.00396165932 L24.8893873,21.9072266 Z M12.0752368,5.23782277 L8.86378419,13.7481789 L15.6081924,13.7481789 L12.0752368,5.23782277 Z" id="Shape"></path>
                <polygon id="Shape" points="46.2391956 0.00396165932 50.992193 0.00396165932 50.992193 21.9072266 45.5319421 21.9072266 45.5319421 8.22579974 39.6227527 15.0979084 38.7880637 15.0979084 32.8792717 8.22579974 32.8792717 21.9069616 27.4190206 21.9069616 27.4190206 0.00396165932 32.1720182 0.00396165932 39.205077 8.12909716"></polygon>
                <path d="M64.8271519,0.00396165932 C72.8235275,0.00396165932 76.9336515,4.98122978 76.9336515,10.9868569 C76.9336515,17.2813995 72.9518898,21.9072266 64.2166013,21.9072266 L55.1598091,21.9072266 L55.1598091,0.00396165932 L64.8271519,0.00396165932 Z M60.619663,17.8927451 L64.1838811,17.8927451 C69.6756601,17.8927451 71.3137752,14.1665169 71.3137752,10.9544019 C71.3137752,7.19651345 69.2901744,4.01791319 64.1196337,4.01791319 L60.6195301,4.01791319 L60.6195301,17.8927451 L60.619663,17.8927451 Z" id="Shape"></path>
            </g>
            <g id="Group" transform="translate(80.673789, 0.000000)">
                <polygon id="Shape" points="18.4169385 6.88588542 7.12274052 6.88588542 0.238047289 0 25.3016317 0 25.3016317 25.0645117 18.4169385 18.1794211"></polygon>
                <polygon id="Shape" points="7.11465986 18.1875017 7.11465986 8.26568539 0.0264938552 15.3535865 0.0264938552 25.2754028 9.94698544 25.2754028 17.0347541 18.1875017"></polygon>
            </g>
        </g>
    </g>
</svg>