<?xml version="1.0" encoding="UTF-8"?>
<svg width="106px" height="64px" viewBox="0 0 106 64" version="1.1" xmlns="http://www.w3.org/2000/svg" xmlns:xlink="http://www.w3.org/1999/xlink" style="background: #FFFFFF;">
    <!-- Generator: Sketch 49.3 (51167) - http://www.bohemiancoding.com/sketch -->
    <title>facebook</title>
    <desc>Created with Sketch.</desc>
    <defs></defs>
    <g id="facebook" stroke="none" stroke-width="1" fill="none" fill-rule="evenodd">
        <rect id="bg" fill-opacity="0" fill="#FFFFFF" x="0" y="0" width="106" height="64"></rect>
        <g transform="translate(0.000000, 22.000000)" fill="#000000" fill-rule="nonzero" id="Shape">
            <path d="M87.407027,7.19797297 C85.9531081,6.81121622 84.4848649,6.81121622 83.0381081,7.19797297 C80.867973,7.77810811 79.4140541,9.14608108 78.9485135,11.3305405 C78.6906757,12.5194595 78.6405405,13.7871622 78.7121622,15.0118919 C78.8625676,17.8051351 80.5958108,19.7962162 83.2744595,20.4193243 L83.3890541,20.4193243 C83.4893243,20.4193243 83.5967568,20.4909459 83.697027,20.4909459 L83.8044595,20.4909459 C83.9333784,20.4909459 84.0909459,20.5625676 84.2556757,20.5625676 C84.7785135,20.6341892 85.4517568,20.6556757 86.0104054,20.5625676 L86.0963514,20.5625676 C88.8681081,20.4193243 90.9666216,18.6717568 91.5825676,15.9931081 C91.9191892,14.5248649 91.9191892,13.0494595 91.5825676,11.5740541 C91.0668919,9.26067568 89.6631081,7.77810811 87.3640541,7.16216216 L87.407027,7.19797297 Z M87.5860811,15.2768919 C87.5860811,15.3628378 87.5860811,15.4487838 87.5144595,15.5347297 C87.2351351,16.7666216 86.3398649,17.4327027 85.1437838,17.3825676 C83.8617568,17.3109459 82.9808108,16.5732432 82.8518919,15.2912162 C82.7659459,14.352973 82.7516216,13.4004054 82.8518919,12.4621622 C82.9736486,10.9795946 83.8975676,10.1702703 85.287027,10.1989189 C86.4258108,10.1989189 87.2422973,10.865 87.5287838,11.967973 C87.8009459,13.0637838 87.6075676,15.0262162 87.6004054,15.2768919 L87.5860811,15.2768919 Z M93.1582432,0.658918919 L93.1582432,20.3691892 L97.3409459,20.3691892 L97.3409459,14.3386486 L101.194189,20.3763514 L105.627568,20.3763514 L101.444865,13.8158108 L105.627568,7.28391892 L101.194189,7.28391892 L97.3409459,13.3072973 L97.3409459,0.150405405 L93.1582432,0.658918919 Z M48.6310811,14.2455405 C48.6310811,13.3287838 48.6310811,12.412027 48.495,11.5095946 C48.1368919,9.04581081 46.64,7.48445946 44.212027,7.07621622 C43.2881081,6.91864865 42.3068919,6.94013514 41.3614865,7.00459459 C38.7831081,7.24810811 36.8278378,8.85243243 36.4267568,11.2732432 C36.1832432,12.7414865 36.1545946,14.2956757 36.347973,15.7639189 C36.6416216,17.977027 37.7231081,19.387973 39.5852703,20.0683784 C40.4375676,20.3262162 44.6059459,21.4148649 48.272973,19.567027 L48.1225676,19.0298649 C47.9506757,18.3064865 47.7501351,17.5974324 47.5567568,16.8812162 L47.5567568,16.8095946 C47.5567568,16.8095946 47.477973,16.8095946 47.3418919,16.8812162 C47.1843243,16.9528378 47.0195946,16.9743243 46.862027,17.0244595 L46.7760811,17.0244595 C46.2174324,17.182027 45.4224324,17.3754054 44.5844595,17.4828378 C43.8825676,17.5544595 43.1663514,17.5544595 42.4501351,17.4828378 C41.2827027,17.2894595 40.3945946,16.6663514 40.4375676,15.1909459 L48.6382432,15.1909459 L48.6382432,15.0477027 L48.6310811,14.2455405 Z M44.8709459,12.4478378 L40.3516216,12.4478378 C40.3516216,11.5525676 40.4877027,10.7145946 41.2827027,10.2060811 C42.1278378,9.66891892 43.0660811,9.64743243 43.9398649,10.1272973 C44.827973,10.6143243 44.8924324,11.4952703 44.8709459,12.4478378 Z M35.7606757,19.4166216 C35.5816216,18.7577027 35.3739189,18.0987838 35.1733784,17.4685135 L34.9871622,16.7666216 C34.9871622,16.7666216 30.0954054,19.1158108 29.3362162,14.6537838 C29.2645946,13.9160811 29.2645946,13.1568919 29.4078378,12.4335135 C29.6012162,11.0655405 30.432027,10.3278378 31.7641892,10.2060811 C32.2154054,10.1344595 32.6809459,10.2060811 33.125,10.2777027 C33.7337838,10.377973 34.3210811,10.5641892 34.9871622,10.7289189 C35.2163514,10.027027 35.4527027,9.32513514 35.6747297,8.62324324 C35.7463514,8.51581081 35.7463514,8.41554054 35.7606757,8.33675676 L35.8681081,7.91418919 C35.8681081,7.84256757 35.775,7.79959459 35.6818919,7.7422973 C35.5672973,7.64918919 35.3810811,7.57040541 35.0802703,7.46297297 C34.9585135,7.39135135 34.8439189,7.37702703 34.7221622,7.34121622 C34.6147297,7.26959459 34.5431081,7.26959459 34.5431081,7.26959459 C33.2610811,6.90432432 31.9432432,6.87567568 30.6039189,7.01175676 C27.782027,7.31256757 25.8625676,8.97418919 25.3325676,11.7244595 C25.0532432,13.1712162 25.0675676,14.6394595 25.4041892,16.0862162 C25.8840541,18.2563514 27.2018919,19.6672973 29.3433784,20.2904054 C30.74,20.6986486 32.1724324,20.7201351 33.5977027,20.4981081 C34.1993243,20.405 35.0587838,20.097027 35.6747297,19.875 L35.9110811,19.7890541 L35.7964865,19.4166216 L35.7606757,19.4166216 Z M19.9466216,8.81662162 C19.875,8.745 19.8463514,8.70918919 19.8105405,8.66621622 L19.7102703,8.56594595 C18.772027,7.60621622 18.4139189,7.36986486 17.6762162,7.155 C14.84,6.31702703 12.0754054,7.80675676 11.2016216,10.6572973 C10.6644595,12.412027 10.6572973,14.2168919 10.9724324,15.9931081 C11.6528378,19.8391892 14.5105405,21.1283784 17.5616216,20.4909459 C18.4998649,20.2975676 19.1945946,19.7102703 19.8391892,18.9009459 C19.8391892,18.9009459 19.9108108,18.8293243 19.9681081,18.6932432 L19.9681081,20.3835135 L23.8714865,20.3835135 L23.8714865,7.14067568 L19.9681081,7.14067568 L19.9681081,8.81662162 L19.9466216,8.81662162 Z M19.6028378,15.4702703 C19.4739189,16.695 18.4855405,17.4255405 17.3109459,17.3825676 C16.1148649,17.3109459 15.3198649,16.695 15.062027,15.5418919 C14.7540541,13.9089189 15.1336486,11.9608108 15.147973,11.8032432 C15.4631081,10.7074324 16.2581081,10.1631081 17.4327027,10.1917568 C18.5858108,10.1917568 19.4667568,10.9008108 19.6028378,12.0897297 C19.7174324,13.207027 19.7174324,14.3601351 19.6028378,15.4702703 Z M10.4066216,7.13351351 L7.42,7.13351351 L7.42,5.14959459 C7.63486486,3.27310811 10.7360811,3.63121622 10.7360811,3.63121622 L10.7360811,0.422567568 C10.6286486,0.422567568 4.57662162,-1.03851351 3.37337838,3.56675676 C3.18716216,4.13972973 3.19432432,6.78256757 3.20148649,7.11202703 L0.615945946,7.11202703 L0.615945946,10.642973 L3.35905405,10.642973 L3.35905405,20.2402703 L7.35554054,20.2402703 L7.35554054,10.642973 L10.4137838,10.642973 L10.7575676,7.11202703 L10.4137838,7.11202703 L10.4066216,7.13351351 Z M73.1543243,7.19797297 C71.7004054,6.81121622 70.2321622,6.81121622 68.7854054,7.19797297 C66.6152703,7.77810811 65.1613514,9.14608108 64.6886486,11.3305405 C64.4308108,12.5194595 64.3806757,13.7871622 64.4522973,15.0118919 C64.6098649,17.8051351 66.3359459,19.7962162 69.0217568,20.4193243 L69.1363514,20.4193243 C69.2366216,20.4193243 69.3440541,20.4909459 69.4443243,20.4909459 L69.5517568,20.4909459 C69.6806757,20.4909459 69.8382432,20.5625676 70.002973,20.5625676 C70.5258108,20.6341892 71.1990541,20.6556757 71.7577027,20.5625676 L71.8436486,20.5625676 C74.6154054,20.4193243 76.7139189,18.6717568 77.3298649,15.9931081 C77.6664865,14.5248649 77.6664865,13.0494595 77.3298649,11.5740541 C76.807027,9.26783784 75.4104054,7.77810811 73.1113514,7.16216216 L73.1543243,7.19797297 Z M73.3262162,15.2768919 C73.3262162,15.3628378 73.3262162,15.4487838 73.2545946,15.5347297 C72.9752703,16.7666216 72.08,17.4327027 70.8839189,17.3825676 C69.6018919,17.3109459 68.7209459,16.5732432 68.592027,15.2912162 C68.5024991,14.3503231 68.5024991,13.4030553 68.592027,12.4621622 C68.7137838,10.9795946 69.6377027,10.1702703 71.0271622,10.1989189 C72.1659459,10.1989189 72.9824324,10.865 73.2689189,11.967973 C73.5482432,13.0637838 73.3548649,15.0262162 73.3405405,15.2768919 L73.3262162,15.2768919 Z M58.3358108,6.95445946 C56.7601351,6.78256757 55.3921622,7.26243243 54.2390541,8.65189189 L54.2390541,0.136081081 L50.0563514,0.644594595 L50.0563514,20.3477027 L54.2390541,20.3477027 L54.2390541,19.1802703 C54.8048649,19.5813514 55.3491892,20.0683784 55.9937838,20.2975676 C58.4289189,21.1713514 61.6375676,20.4622973 62.762027,17.2035135 C63.4854054,15.1121622 63.4639189,12.9706757 62.9195946,10.8578378 C62.3251351,8.50864865 60.7566216,7.2122973 58.3358108,6.95445946 Z M58.9660811,15.4917568 C58.7798649,16.7881081 57.7485135,17.4685135 56.5237838,17.3754054 C56.2158108,17.3754054 55.9364865,17.2894595 55.692973,17.1891892 C54.7045946,16.6233784 54.4037838,15.6708108 54.3178378,15.0691892 C54.2462162,14.1452703 54.1745946,12.2114865 54.6258108,11.3018919 C55.0054054,10.6 55.6786486,10.2204054 56.5595946,10.1917568 C57.8201351,10.1201351 58.7727027,10.7718919 58.9589189,12.0539189 C59.1164865,13.1783784 59.1236486,14.3672973 58.9589189,15.4917568 L58.9660811,15.4917568 Z"></path>
        </g>
    </g>
</svg>