<?xml version="1.0" encoding="UTF-8"?>
<svg width="106px" height="64px" viewBox="0 0 106 64" version="1.1" xmlns="http://www.w3.org/2000/svg" xmlns:xlink="http://www.w3.org/1999/xlink" style="background: #FFFFFF;">
    <!-- Generator: Sketch 49.3 (51167) - http://www.bohemiancoding.com/sketch -->
    <title>ibm</title>
    <desc>Created with Sketch.</desc>
    <defs></defs>
    <g id="ibm" stroke="none" stroke-width="1" fill="none" fill-rule="evenodd">
        <rect id="bg" fill-opacity="0" fill="#FFFFFF" x="0" y="0" width="106" height="64"></rect>
        <g transform="translate(0.000000, 11.000000)" fill="#000000" fill-rule="nonzero" id="Shape">
            <path d="M0,0 L0,2.90105263 L20.6281579,2.90105263 L20.6281579,0 L0,0 Z M23.5571053,0 L23.5571053,2.90105263 L52.9581579,2.90105263 C52.9581579,2.90105263 49.9594737,0 45.9705263,0 L23.5571053,0 Z M58.7323684,0 L58.7323684,2.90105263 L76.5152632,2.90105263 L75.4552632,0 L58.7323684,0 Z M89.2631579,0 L88.2171053,2.90105263 L105.832632,2.90105263 L105.832632,0 L89.2631579,0 Z M0,5.64171053 L0,8.53578947 L20.6281579,8.53578947 L20.6281579,5.64171053 L0,5.64171053 Z M23.5571053,5.64171053 L23.5571053,8.53578947 L56.3752632,8.53578947 C56.3752632,8.53578947 55.9847368,6.30421053 55.3152632,5.64171053 L23.5571053,5.64171053 Z M58.7323684,5.64171053 L58.7323684,8.53578947 L78.4678947,8.53578947 L77.4915789,5.64171053 L58.7323684,5.64171053 Z M87.1571053,5.64171053 L86.1807895,8.53578947 L105.832632,8.53578947 L105.832632,5.64171053 L87.1571053,5.64171053 Z M5.92763158,11.2834211 L5.92763158,14.1844737 L14.8678947,14.1844737 L14.8678947,11.2834211 L5.92763158,11.2834211 Z M29.4847368,11.2834211 L29.4847368,14.1844737 L38.425,14.1844737 L38.425,11.2834211 L29.4847368,11.2834211 Z M47.1142105,11.2834211 L47.1142105,14.1844737 L56.0405263,14.1844737 C56.0544737,14.1844737 56.6123684,12.6502632 56.6123684,11.2834211 L47.1142105,11.2834211 Z M64.66,11.2834211 L64.66,14.1844737 L80.5042105,14.1844737 L79.4442105,11.2834211 L64.66,11.2834211 Z M85.2044737,11.2834211 L84.1444737,14.1844737 L100.072368,14.1844737 L100.072368,11.2834211 L85.2044737,11.2834211 Z M5.92763158,16.9321053 L5.92763158,19.8331579 L14.8678947,19.8331579 L14.8678947,16.9321053 L5.92763158,16.9321053 Z M29.4847368,16.9321053 L29.4847368,19.8331579 L52.3026316,19.8331579 C52.3026316,19.8331579 54.2134211,18.3407895 54.8271053,16.9321053 L29.4847368,16.9321053 Z M64.66,16.9321053 L64.66,19.8331579 L73.5863158,19.8331579 L73.5863158,18.2152632 L74.1581579,19.8331579 L90.5323684,19.8331579 L91.1321053,18.2152632 L91.1321053,19.8331579 L100.072368,19.8331579 L100.072368,16.9321053 L83.2936842,16.9321053 L82.4010526,19.3868421 L81.5084211,16.9321053 L64.66,16.9321053 Z M5.92763158,22.5668421 L5.92763158,25.4678947 L14.8678947,25.4678947 L14.8678947,22.5668421 L5.92763158,22.5668421 Z M29.4847368,22.5668421 L29.4847368,25.4678947 L54.8271053,25.4678947 C54.2134211,24.0592105 52.3026316,22.5668421 52.3026316,22.5668421 L29.4847368,22.5668421 Z M64.66,22.5668421 L64.66,25.4678947 L73.5863158,25.4678947 L73.5863158,22.5668421 L64.66,22.5668421 Z M75.2181579,22.5668421 L76.2921053,25.4678947 L88.5657895,25.4678947 L89.5978947,22.5668421 L75.2181579,22.5668421 Z M91.1321053,22.5668421 L91.1321053,25.4678947 L100.072368,25.4678947 L100.072368,22.5668421 L91.1321053,22.5668421 Z M5.92763158,28.2155263 L5.92763158,31.1165789 L14.8678947,31.1165789 L14.8678947,28.2155263 L5.92763158,28.2155263 Z M29.4847368,28.2155263 L29.4847368,31.1165789 L38.425,31.1165789 L38.425,28.2155263 L29.4847368,28.2155263 Z M47.1142105,28.2155263 L47.1142105,31.1165789 L56.6123684,31.1165789 C56.6123684,29.7497368 56.0405263,28.2155263 56.0405263,28.2155263 L47.1142105,28.2155263 Z M64.66,28.2155263 L64.66,31.1165789 L73.5863158,31.1165789 L73.5863158,28.2155263 L64.66,28.2155263 Z M77.2405263,28.2155263 L78.2865789,31.1165789 L86.5155263,31.1165789 L87.5755263,28.2155263 L77.2405263,28.2155263 Z M91.1321053,28.2155263 L91.1321053,31.1165789 L100.072368,31.1165789 L100.072368,28.2155263 L91.1321053,28.2155263 Z M0.167368421,33.8502632 L0.167368421,36.7652632 L20.7955263,36.7652632 L20.7955263,33.8502632 L0.167368421,33.8502632 Z M23.5571053,33.8502632 L23.5571053,36.7652632 L55.3152632,36.7652632 C55.9847368,36.0957895 56.3752632,33.8502632 56.3752632,33.8502632 L23.5571053,33.8502632 Z M58.8857895,33.8502632 L58.8857895,36.7652632 L73.5863158,36.7652632 L73.5863158,33.8502632 L58.8857895,33.8502632 Z M79.2768421,33.8502632 L80.3507895,36.7652632 L84.535,36.7652632 L85.5531579,33.8502632 L79.2768421,33.8502632 Z M91.1321053,33.8502632 L91.1321053,36.7652632 L106,36.7652632 L106,33.8502632 L91.1321053,33.8502632 Z M0.167368421,39.4989474 L0.167368421,42.4 L20.7955263,42.4 L20.7955263,39.4989474 L0.167368421,39.4989474 Z M23.5571053,39.4989474 L23.5571053,42.4 L45.9705263,42.4 C49.9594737,42.4 52.9581579,39.4989474 52.9581579,39.4989474 L23.5571053,39.4989474 Z M58.8857895,39.4989474 L58.8857895,42.4 L73.5863158,42.4 L73.5863158,39.4989474 L58.8857895,39.4989474 Z M81.3131579,39.4989474 L82.3592105,42.3860526 L82.5265789,42.4 L83.5865789,39.4989474 L81.3131579,39.4989474 Z M91.1321053,39.4989474 L91.1321053,42.4 L106,42.4 L106,39.4989474 L91.1321053,39.4989474 Z"></path>
        </g>
    </g>
</svg>